数电EDA实验/EDA2/simulation/qsim/Block1.msim.vcd
$comment
	File created using the following command:
		vcd file Block1.msim.vcd -direction
$end
$date
	Tue May 31 20:59:24 2022
$end
$version
	ModelSim Version 10.5b
$end
$timescale
	1ps
$end

$scope module Block1_vlg_vec_tst $end
$var reg 1 ! pin_name1 $end
$var wire 1 " O1 $end
$var wire 1 # O2 $end
$var wire 1 $ O3 $end
$var wire 1 % O4 $end
$var wire 1 & O5 $end
$var wire 1 ' O6 $end
$var wire 1 ( O7 $end
$var wire 1 ) T1 $end
$var wire 1 * T2 $end
$var wire 1 + T3 $end
$var wire 1 , T4 $end
$var wire 1 - T5 $end
$var wire 1 . T6 $end
$var wire 1 / T7 $end

$scope module i1 $end
$var wire 1 0 gnd $end
$var wire 1 1 vcc $end
$var wire 1 2 unknown $end
$var tri1 1 3 devclrn $end
$var tri1 1 4 devpor $end
$var tri1 1 5 devoe $end
$var wire 1 6 T1~output_o $end
$var wire 1 7 T2~output_o $end
$var wire 1 8 T3~output_o $end
$var wire 1 9 T4~output_o $end
$var wire 1 : T5~output_o $end
$var wire 1 ; T6~output_o $end
$var wire 1 < T7~output_o $end
$var wire 1 = O1~output_o $end
$var wire 1 > O2~output_o $end
$var wire 1 ? O3~output_o $end
$var wire 1 @ O4~output_o $end
$var wire 1 A O5~output_o $end
$var wire 1 B O6~output_o $end
$var wire 1 C O7~output_o $end
$var wire 1 D pin_name1~input_o $end
$var wire 1 E inst4|sub|86~combout $end
$var wire 1 F inst4|sub|87~q $end
$var wire 1 G inst8~0_combout $end
$var wire 1 H inst4|sub|98~combout $end
$var wire 1 I inst4|sub|99~q $end
$var wire 1 J inst4|sub|108~0_combout $end
$var wire 1 K inst4|sub|108~combout $end
$var wire 1 L inst4|sub|110~q $end
$var wire 1 M inst4|sub|77~combout $end
$var wire 1 N inst4|sub|9~q $end
$var wire 1 O inst3|sub|77~combout $end
$var wire 1 P inst3|sub|9~q $end
$var wire 1 Q inst12|81~0_combout $end
$var wire 1 R inst12|82~0_combout $end
$var wire 1 S inst12|83~combout $end
$var wire 1 T inst12|84~0_combout $end
$var wire 1 U inst12|85~combout $end
$var wire 1 V inst12|86~0_combout $end
$var wire 1 W inst12|87~combout $end
$upscope $end
$upscope $end
$enddefinitions $end
#0
$dumpvars
0!
x"
x#
x$
x%
x&
x'
x(
1)
x*
x+
1,
1-
1.
1/
00
11
x2
13
14
15
16
x7
x8
19
1:
1;
1<
x=
x>
x?
x@
xA
xB
xC
0D
xE
0F
xG
xH
0I
xJ
xK
0L
xM
0N
xO
0P
xQ
xR
xS
xT
xU
xV
xW
$end
#506
1J
#637
0G
#702
0O
#704
1M
#843
0H
#861
0K
#862
0E
#1151
0U
#1155
0T
#1157
0S
0V
#1177
1W
#1178
0R
#1197
0Q
#3632
17
1*
#3655
18
1+
#7127
0@
0%
#7428
0=
0"
#7543
0A
0&
#8466
1C
1(
#8879
0>
0#
#9705
0B
0'
#10768
0?
0$
#25000
1!
#25700
1D
#27192
1N
#27621
0M
#27947
1E
#27983
1Q
#27987
1T
#27988
1U
#27989
1V
#34057
1@
1%
#34095
1=
1"
#34478
1A
1&
#36570
1B
1'
#50000
0!
#50806
0D
#75000
1!
#75700
1D
#77192
1F
0N
#77601
1M
#77790
0T
#78047
0Q
#78053
0U
#78305
1S
#78315
0W
#83762
0@
0%
#84278
0=
0"
#84445
0A
0&
#85481
0C
0(
#88050
1?
1$
#100000
0!
#100806
0D
#125000
1!
#125700
1D
#127192
1N
#127621
0M
#127950
1H
#127958
0E
#127982
0S
#127988
1U
#134478
1A
1&
#137593
0?
0$
#150000
0!
#150806
0D
#175000
1!
#175700
1D
#177192
0F
1I
0N
#177601
1M
1E
#178054
0E
#178307
1T
#178340
1Q
#178364
0V
#184377
1@
1%
#184452
1=
1"
#186912
0B
0'
#200000
0!
#200806
0D
#225000
1!
#225700
1D
#227192
1N
#227621
0M
#227947
1E
#227976
0Q
#227981
0T
#227984
1R
#233953
0@
0%
#234207
0=
0"
#235539
1>
1#
#250000
0!
#250806
0D
#275000
1!
#275700
1D
#277192
1F
0N
#277601
1M
#277756
0J
#278053
0U
#278054
1Q
#284166
1=
1"
#284445
0A
0&
#300000
0!
#300806
0D
#325000
1!
#325700
1D
#327192
1N
#327621
0M
#327949
1K
#327958
0E
#327961
0H
#327976
0Q
#327978
0R
#327985
1W
#327987
1T
#327988
1U
#327989
1V
#334057
1@
1%
#334207
0=
0"
#334478
1A
1&
#335274
1C
1(
#335679
0>
0#
#336570
1B
1'
#350000
0!
#350806
0D
#375000
1!
#375700
1D
#377192
0F
0I
1L
0N
#377601
1M
1H
1E
#377621
0K
#377698
1J
#377845
1S
#377852
1R
#377853
1Q
#378035
0H
#378046
1K
#378049
0W
#378054
0E
0V
#378343
0U
#378347
0T
#378370
0R
#378389
0Q
#378404
0S
#384319
0@
0%
#384735
0A
0&
#385215
0C
0(
#386602
0B
0'
#400000
0!
#400806
0D
#425000
1!
#425700
1D
#427192
1N
#427621
0M
#427654
1G
#427956
0K
#427987
1T
#427988
1U
#428102
1O
#434057
1@
1%
#434478
1A
1&
#450000
0!
#450806
0D
#475000
1!
#475700
1D
#477192
0L
0N
1P
#477601
1M
#477621
0O
#477811
0M
#477829
0G
#477910
1O
#477914
1W
#478051
0T
#478053
0U
#478195
1M
#480826
07
0*
#480850
08
0+
#484023
0@
0%
#484445
0A
0&
#485203
1C
1(
#500000
0!
#500806
0D
#525000
1!
#525700
1D
#527192
1N
#527621
0M
#527947
1E
#527983
1Q
#527987
1T
#527988
1U
#527989
1V
#534057
1@
1%
#534095
1=
1"
#534478
1A
1&
#536570
1B
1'
#550000
0!
#550806
0D
#575000
1!
#575700
1D
#577192
1F
0N
#577601
1M
#577790
0T
#578047
0Q
#578053
0U
#578305
1S
#578315
0W
#583762
0@
0%
#584278
0=
0"
#584445
0A
0&
#585481
0C
0(
#588050
1?
1$
#600000
0!
#600806
0D
#625000
1!
#625700
1D
#627192
1N
#627621
0M
#627950
1H
#627958
0E
#627982
0S
#627988
1U
#634478
1A
1&
#637593
0?
0$
#650000
0!
#650806
0D
#675000
1!
#675700
1D
#677192
0F
1I
0N
#677601
1M
1E
#678054
0E
#678307
1T
#678340
1Q
#678364
0V
#684377
1@
1%
#684452
1=
1"
#686912
0B
0'
#700000
0!
#700806
0D
#725000
1!
#725700
1D
#727192
1N
#727621
0M
#727947
1E
#727976
0Q
#727981
0T
#727984
1R
#733953
0@
0%
#734207
0=
0"
#735539
1>
1#
#750000
0!
#750806
0D
#775000
1!
#775700
1D
#777192
1F
0N
#777601
1M
#777756
0J
#778053
0U
#778054
1Q
#784166
1=
1"
#784445
0A
0&
#800000
0!
#800806
0D
#825000
1!
#825700
1D
#827192
1N
#827621
0M
#827949
1K
#827958
0E
#827961
0H
#827976
0Q
#827978
0R
#827985
1W
#827987
1T
#827988
1U
#827989
1V
#834057
1@
1%
#834207
0=
0"
#834478
1A
1&
#835274
1C
1(
#835679
0>
0#
#836570
1B
1'
#850000
0!
#850806
0D
#875000
1!
#875700
1D
#877192
0F
0I
1L
0N
#877601
1M
1H
1E
#877621
0K
#877698
1J
#877755
1G
#877832
0O
#877845
1S
#877852
1R
#877853
1Q
#878035
0H
#878049
0W
#878054
0E
0V
#878108
0M
#878343
0U
#878347
0T
#878370
0R
#878389
0Q
#878404
0S
#884319
0@
0%
#884735
0A
0&
#885215
0C
0(
#886602
0B
0'
#900000
0!
#900806
0D
#925000
1!
#925700
1D
#927192
0L
0P
#927829
0G
#927896
1M
#927914
1W
#930824
17
1*
#930847
18
1+
#935203
1C
1(
#950000
0!
#950806
0D
#975000
1!
#975700
1D
#977192
1N
#977621
0M
#977947
1E
#977983
1Q
#977987
1T
#977988
1U
#977989
1V
#984057
1@
1%
#984095
1=
1"
#984478
1A
1&
#986570
1B
1'
