数电EDA实验/EDA3/simulation/qsim/Block1.msim.vcd
$comment
	File created using the following command:
		vcd file Block1.msim.vcd -direction
$end
$date
	Tue May 31 21:47:43 2022
$end
$version
	ModelSim Version 10.5b
$end
$timescale
	1ps
$end

$scope module Block1_vlg_vec_tst $end
$var reg 1 ! pin_name1 $end
$var wire 1 " led1 $end
$var wire 1 # led2 $end
$var wire 1 $ led3 $end
$var wire 1 % led4 $end

$scope module i1 $end
$var wire 1 & gnd $end
$var wire 1 ' vcc $end
$var wire 1 ( unknown $end
$var tri1 1 ) devclrn $end
$var tri1 1 * devpor $end
$var tri1 1 + devoe $end
$var wire 1 , led1~output_o $end
$var wire 1 - led2~output_o $end
$var wire 1 . led3~output_o $end
$var wire 1 / led4~output_o $end
$var wire 1 0 pin_name1~input_o $end
$var wire 1 1 inst3|26~0_combout $end
$var wire 1 2 inst3|26~q $end
$var wire 1 3 inst3|5~combout $end
$var wire 1 4 inst3|25~0_combout $end
$var wire 1 5 inst3|25~q $end
$var wire 1 6 inst3|51~combout $end
$var wire 1 7 inst3|24~0_combout $end
$var wire 1 8 inst3|24~q $end
$var wire 1 9 inst4|50~combout $end
$var wire 1 : inst4|38~q $end
$var wire 1 ; inst4|47~0_combout $end
$var wire 1 < inst4|39~q $end
$var wire 1 = inst4|48~0_combout $end
$var wire 1 > inst4|40~q $end
$var wire 1 ? inst4|49~combout $end
$var wire 1 @ inst4|41~q $end
$upscope $end
$upscope $end
$enddefinitions $end
#0
$dumpvars
0!
x"
x#
x$
x%
0&
1'
x(
1)
1*
1+
x,
x-
x.
x/
00
11
02
x3
14
05
x6
17
08
x9
0:
x;
0<
x=
0>
x?
0@
$end
#491
16
#495
13
#516
1?
#649
09
#650
0;
#821
0=
#4833
0-
0#
#5143
0/
0%
#6876
0.
0$
#7048
0,
0"
#25000
1!
#25700
10
#28220
12
1@
#28649
01
#28950
1=
#35213
1,
1"
#50000
0!
#50806
00
#52688
03
#75000
1!
#75700
10
#77578
13
#78220
02
1>
#78629
11
#78792
1;
#78823
15
#79252
04
#82976
1-
1#
#100000
0!
#100806
00
#125000
1!
#125700
10
#128220
12
1<
#128649
01
#128792
19
#135199
1.
1$
#150000
0!
#150806
00
#152686
06
#152688
03
#175000
1!
#175700
10
#177576
16
#177578
13
#178220
02
1:
#178617
18
#178629
11
#178823
05
#179036
09
#179046
07
#179232
14
#183267
1/
1%
#200000
0!
#200806
00
#225000
1!
#225700
10
#228220
12
0:
#228649
01
#228976
0;
#233363
0/
0%
#250000
0!
#250806
00
#252688
03
#275000
1!
#275700
10
#277578
13
#278220
02
0<
#278629
11
#278823
15
#278871
0=
#279252
04
#285096
0.
0$
#300000
0!
#300806
00
#325000
1!
#325700
10
#328220
12
0>
#328649
01
#328872
0?
#333053
0-
0#
#350000
0!
#350806
00
#352686
06
#352688
03
#375000
1!
#375700
10
#377576
16
#377578
13
#378220
02
0@
#378617
08
#378629
11
#378823
05
#379026
17
#379133
1?
#379232
14
#385268
0,
0"
#400000
0!
#400806
00
#425000
1!
#425700
10
#428220
12
1@
#428649
01
#428950
1=
#435213
1,
1"
#450000
0!
#450806
00
#452688
03
#475000
1!
#475700
10
#477578
13
#478220
02
1>
#478629
11
#478792
1;
#478823
15
#479252
04
#482976
1-
1#
#500000
0!
#500806
00
#525000
1!
#525700
10
#528220
12
1<
#528649
01
#528792
19
#535199
1.
1$
#550000
0!
#550806
00
#552686
06
#552688
03
#575000
1!
#575700
10
#577576
16
#577578
13
#578220
02
1:
#578617
18
#578629
11
#578823
05
#579036
09
#579046
07
#579232
14
#583267
1/
1%
#600000
0!
#600806
00
#625000
1!
#625700
10
#628220
12
0:
#628649
01
#628976
0;
#633363
0/
0%
#650000
0!
#650806
00
#652688
03
#675000
1!
#675700
10
#677578
13
#678220
02
0<
#678629
11
#678823
15
#678871
0=
#679252
04
#685096
0.
0$
#700000
0!
#700806
00
#725000
1!
#725700
10
#728220
12
0>
#728649
01
#728872
0?
#733053
0-
0#
#750000
0!
#750806
00
#752686
06
#752688
03
#775000
1!
#775700
10
#777576
16
#777578
13
#778220
02
0@
#778617
08
#778629
11
#778823
05
#779026
17
#779133
1?
#779232
14
#785268
0,
0"
#800000
0!
#800806
00
#825000
1!
#825700
10
#828220
12
1@
#828649
01
#828950
1=
#835213
1,
1"
#850000
0!
#850806
00
#852688
03
#875000
1!
#875700
10
#877578
13
#878220
02
1>
#878629
11
#878792
1;
#878823
15
#879252
04
#882976
1-
1#
#900000
0!
#900806
00
#925000
1!
#925700
10
#928220
12
1<
#928649
01
#928792
19
#935199
1.
1$
#950000
0!
#950806
00
#952686
06
#952688
03
#975000
1!
#975700
10
#977576
16
#977578
13
#978220
02
1:
#978617
18
#978629
11
#978823
05
#979036
09
#979046
07
#979232
14
#983267
1/
1%
